Insurance_Claims_Analysis
…
agg_data <- df_processed_insurance %>%
  group_by(Kilometres, Zone, Bonus) %>%
  summarise(
    mean_insured= mean(Insured),
    mean_claims=mean(Claims),
    mean_payment=mean(Payment)
    
  )

## `summarise()` has grouped output by 'Kilometres', 'Zone'. You can override
## using the `.groups` argument.

agg_data

## # A tibble: 245 x 6
## # Groups:   Kilometres, Zone [35]
##    Kilometres Zone  Bonus mean_insured mean_claims mean_payment
##    <fct>      <fct> <fct>        <dbl>       <dbl>        <dbl>
##  1 1          1     1            1411.       234.       900812.
##  2 1          1     2             907.        87.7      392782.
##  3 1          1     3             710.        54.6      237739.
##  4 1          1     4             601.        42        192112.
##  5 1          1     5             684.        41.8      164829.
##  6 1          1     6            1330.        73.6      283281 
##  7 1          1     7            7007.       263.      1262024.
##  8 1          2     1            1612.       184.       847469.
##  9 1          2     2            1089.        80.9      340972.
## 10 1          2     3             843.        44.2      195208.
## # i 235 more rows
…
ordered_agg_data <- agg_data[order(-agg_data$mean_insured, -agg_data$mean_claims, -agg_data$mean_payment), ]
ordered_agg_data

## # A tibble: 245 x 6
## # Groups:   Kilometres, Zone [35]
##    Kilometres Zone  Bonus mean_insured mean_claims mean_payment
##    <fct>      <fct> <fct>        <dbl>       <dbl>        <dbl>
##  1 2          4     7           19544.        530.     2917260.
##  2 1          4     7           19143.        434.     2357821.
##  3 3          4     7           12956.        404.     2169422.
##  4 1          3     7            9720.        271.     1407028.
##  5 2          3     7            9577.        314.     1581017.
##  6 2          2     7            8518.        323.     1637884.
##  7 1          2     7            8057.        254.     1225560.
##  8 1          1     7            7007.        263.     1262024.
##  9 2          1     7            6919.        327.     1612848.
## 10 3          3     7            5912.        228.     1190439.
## # i 235 more rows
…
